{
  "label": "API",
  "position": 3,
  "link": {
    "type": "generated-index",
    "description": "Guide about Rest API OpenSSO. OpenSSO basically is a Rest API first system. Here is the fundamental API list to use in your website."
  }
}
